Disclosure Risk for Student Microdata | Shaina Trevino
…
Risky Variable Response Combinations

We will use various functions from the {tidyverse} package to aggregate the individual risk metrics for each variable response combination:

var_combos <- ind_risk_df %>% 
  select(id, where(is.factor), risk, fk) %>% #select variables
  group_by(grade_level, sex, race, econ_dis, disability, dis_cat, lang) %>%  #group by all responses
  summarize(risk = mean(risk), #aggregate risk metrics
            freq = mean(fk),
            .groups = "keep")

var_combos

## # A tibble: 3,238 x 9
## # Groups:   grade_level, sex, race, econ_dis, disability, dis_cat, lang [3,238]
##    grade_level sex    race  econ_dis disability dis_cat       lang    risk  freq
##    <fct>       <fct>  <fct> <fct>    <fct>      <fct>         <fct>  <dbl> <dbl>
##  1 10th Grade  Female Asian No       No         Not Applicab~ Chin~ 1          1
##  2 10th Grade  Female Asian No       No         Not Applicab~ Engl~ 0.0909    11
##  3 10th Grade  Female Asian No       No         Not Applicab~ Other 1          1
##  4 10th Grade  Female Asian No       No         Not Applicab~ Span~ 0.25       4
##  5 10th Grade  Female Asian No       Yes        Other         Other 1          1
##  6 10th Grade  Female Asian No       Yes        Specific Lea~ Engl~ 1          1
##  7 10th Grade  Female Asian No       Yes        Specific Lea~ Other 1          1
##  8 10th Grade  Female Asian Yes      No         Not Applicab~ Engl~ 0.1       10
##  9 10th Grade  Female Asian Yes      No         Not Applicab~ Span~ 1          1
## 10 10th Grade  Female Asian Yes      Yes        Specific Lea~ Engl~ 0.333      3
## # ... with 3,228 more rows

The resulting data frame shows the 3,238 possible response combinations for our categorical indirect identifiers and the corresponding risk metrics. You can see that the first response combination is unique, whereas the second combination has 11 students with those responses.

Next, we can filter each combination to show us only the unique response combinations:

uniq <- var_combos %>% 
  filter(freq == 1)

uniq

## # A tibble: 1,257 x 9
## # Groups:   grade_level, sex, race, econ_dis, disability, dis_cat, lang [1,257]
##    grade_level sex    race  econ_dis disability dis_cat        lang   risk  freq
##    <fct>       <fct>  <fct> <fct>    <fct>      <fct>          <fct> <dbl> <dbl>
##  1 10th Grade  Female Asian No       No         Not Applicable Chin~     1     1
##  2 10th Grade  Female Asian No       No         Not Applicable Other     1     1
##  3 10th Grade  Female Asian No       Yes        Other          Other     1     1
##  4 10th Grade  Female Asian No       Yes        Specific Lear~ Engl~     1     1
##  5 10th Grade  Female Asian No       Yes        Specific Lear~ Other     1     1
##  6 10th Grade  Female Asian Yes      No         Not Applicable Span~     1     1
##  7 10th Grade  Female Black No       No         Not Applicable Russ~     1     1
##  8 10th Grade  Female Black No       Yes        Specific Lear~ Other     1     1
##  9 10th Grade  Female Black No       Yes        Speech/Langua~ Engl~     1     1
## 10 10th Grade  Female Black Yes      Yes        Autism         Engl~     1     1
## # ... with 1,247 more rows

We already know from calculating the k-anonymity violations above that there are 1,257 unique individual responses in our data set. However, it is helpful to explore the pattern of unique responses to see which variables or response options are leading to high re-identification risk.

It is useful to also filter variable response combinations for those that are under our threshold. Since we are using 5-anonymity as our privacy model, we filter for response combinations with less than 5 students:

#filter high risk
risky <- var_combos %>% 
  filter(freq < 5)

risky

## # A tibble: 2,179 x 9
## # Groups:   grade_level, sex, race, econ_dis, disability, dis_cat, lang [2,179]
##    grade_level sex    race  econ_dis disability dis_cat        lang   risk  freq
##    <fct>       <fct>  <fct> <fct>    <fct>      <fct>          <fct> <dbl> <dbl>
##  1 10th Grade  Female Asian No       No         Not Applicable Chin~ 1         1
##  2 10th Grade  Female Asian No       No         Not Applicable Other 1         1
##  3 10th Grade  Female Asian No       No         Not Applicable Span~ 0.25      4
##  4 10th Grade  Female Asian No       Yes        Other          Other 1         1
##  5 10th Grade  Female Asian No       Yes        Specific Lear~ Engl~ 1         1
##  6 10th Grade  Female Asian No       Yes        Specific Lear~ Other 1         1
##  7 10th Grade  Female Asian Yes      No         Not Applicable Span~ 1         1
##  8 10th Grade  Female Asian Yes      Yes        Specific Lear~ Engl~ 0.333     3
##  9 10th Grade  Female Black No       No         Not Applicable Other 0.25      4
## 10 10th Grade  Female Black No       No         Not Applicable Russ~ 1         1
## # ... with 2,169 more rows
…
